15 0.718570 0.833077 0.549020 0.246154
15 0.792388 0.964231 0.412918 0.071538
15 0.196655 0.960769 0.367935 0.078462
15 0.198385 0.801538 0.394464 0.232308
15 0.225490 0.579231 0.448674 0.155385
15 0.223760 0.470000 0.313725 0.118462
15 0.271626 0.405769 0.326413 0.091538
15 0.304498 0.349231 0.274510 0.090769
15 0.326413 0.280000 0.249135 0.072308
15 0.296424 0.239231 0.235294 0.070769
15 0.307382 0.195385 0.229527 0.066154
15 0.332757 0.150000 0.181084 0.043077
15 0.339100 0.118077 0.182238 0.043846
15 0.342561 0.081923 0.152249 0.037692
15 0.348328 0.053462 0.145329 0.043846
15 0.359285 0.021923 0.141869 0.030000
15 0.721453 0.648077 0.462514 0.203846
15 0.673010 0.506154 0.374856 0.173846
15 0.645329 0.420000 0.363322 0.147692
15 0.628028 0.345385 0.335640 0.120000
15 0.642445 0.285385 0.272203 0.101538
15 0.593426 0.246154 0.231834 0.098462
15 0.575548 0.198462 0.209919 0.072308
15 0.581892 0.160000 0.211073 0.076923
15 0.558824 0.130385 0.190311 0.062308
15 0.561130 0.095769 0.148789 0.045385
15 0.566321 0.069231 0.131488 0.046154
15 0.558824 0.040385 0.134948 0.050000
15 0.900807 0.206538 0.198385 0.077692
15 0.933103 0.303077 0.133795 0.175385
15 0.876586 0.164615 0.232987 0.055385
15 0.830450 0.129231 0.230681 0.058462
15 0.798731 0.093462 0.213379 0.045385
15 0.780854 0.065385 0.163783 0.036923
15 0.752018 0.041538 0.168397 0.041538
15 0.743945 0.016923 0.156863 0.032308
15 0.061707 0.171154 0.121107 0.054615
15 0.085928 0.125000 0.169550 0.066923
15 0.133218 0.083077 0.169550 0.050769
15 0.154556 0.047308 0.166090 0.040769
15 0.189735 0.021154 0.141869 0.039231
