15 0.142445 0.859353 0.282584 0.151799
15 0.538639 0.848201 0.454441 0.169784
15 0.914072 0.807554 0.171857 0.174820
15 0.567474 0.647842 0.371396 0.174820
15 0.156286 0.661871 0.310265 0.176978
15 0.879469 0.610791 0.241061 0.188489
15 0.523068 0.490288 0.319493 0.125899
15 0.152826 0.503597 0.303345 0.139568
15 0.192618 0.369424 0.302191 0.118705
15 0.530565 0.350360 0.329873 0.141007
15 0.871972 0.328417 0.256055 0.125899
15 0.866205 0.464388 0.267589 0.133094
15 0.874856 0.219784 0.247982 0.104317
15 0.495386 0.238129 0.277970 0.107914
15 0.164360 0.273381 0.277970 0.113669
15 0.197809 0.167626 0.305652 0.100719
15 0.493656 0.159712 0.265283 0.092086
15 0.802768 0.134173 0.253749 0.092806
15 0.798155 0.056115 0.235294 0.071942
15 0.486736 0.076619 0.239908 0.072662
15 0.220877 0.093885 0.257209 0.087050
15 0.247982 0.027698 0.235294 0.053957
15 0.497116 0.023381 0.239908 0.045324
