15 0.820675 0.673375 0.253165 0.591331
15 0.524262 0.554180 0.259494 0.532508
15 0.303797 0.534056 0.156118 0.399381
15 0.130802 0.493808 0.164557 0.325077
15 0.869198 0.473684 0.261603 0.439628
15 0.590717 0.363777 0.278481 0.399381
15 0.176160 0.283282 0.179325 0.269350
