15 0.825000 0.168750 0.166667 0.237500
15 0.120833 0.862500 0.125000 0.200000
15 0.266667 0.725000 0.150000 0.225000
15 0.412500 0.581250 0.125000 0.187500
15 0.533333 0.462500 0.150000 0.200000
15 0.662500 0.318750 0.175000 0.212500
