15 0.841667 0.181250 0.133333 0.237500
15 0.695833 0.281250 0.158333 0.237500
15 0.562500 0.425000 0.175000 0.225000
15 0.416667 0.581250 0.166667 0.237500
15 0.300000 0.681250 0.150000 0.187500
15 0.166667 0.837500 0.150000 0.275000
