15 0.858333 0.175000 0.166667 0.300000
15 0.687500 0.275000 0.108333 0.150000
15 0.545833 0.431250 0.158333 0.312500
15 0.420833 0.556250 0.108333 0.237500
15 0.300000 0.687500 0.150000 0.275000
15 0.150000 0.850000 0.183333 0.275000
