15 0.829167 0.156250 0.175000 0.287500
15 0.687500 0.287500 0.158333 0.275000
15 0.541667 0.431250 0.166667 0.312500
15 0.420833 0.556250 0.108333 0.212500
15 0.287500 0.668750 0.158333 0.337500
15 0.150000 0.806250 0.183333 0.337500
