15 0.825000 0.168750 0.166667 0.312500
15 0.712500 0.312500 0.158333 0.350000
15 0.566667 0.437500 0.133333 0.225000
15 0.433333 0.537500 0.150000 0.250000
15 0.291667 0.662500 0.183333 0.250000
15 0.170833 0.850000 0.208333 0.200000
