15 0.833333 0.175000 0.150000 0.250000
15 0.691667 0.312500 0.150000 0.175000
15 0.570833 0.406250 0.125000 0.287500
15 0.429167 0.581250 0.141667 0.237500
15 0.266667 0.693750 0.150000 0.212500
15 0.150000 0.837500 0.133333 0.225000
