15 0.825000 0.150000 0.133333 0.200000
15 0.675000 0.281250 0.150000 0.237500
15 0.525000 0.418750 0.166667 0.162500
15 0.404167 0.550000 0.108333 0.200000
15 0.287500 0.675000 0.141667 0.225000
15 0.141667 0.837500 0.133333 0.250000
