15 0.812500 0.193750 0.125000 0.212500
15 0.675000 0.337500 0.133333 0.150000
15 0.266667 0.775000 0.133333 0.175000
15 0.400000 0.600000 0.166667 0.150000
15 0.525000 0.568750 0.166667 0.187500
15 0.554167 0.418750 0.158333 0.162500
