15 0.870833 0.218750 0.175000 0.262500
15 0.716667 0.375000 0.150000 0.250000
15 0.579167 0.487500 0.125000 0.200000
15 0.450000 0.612500 0.133333 0.225000
15 0.308333 0.712500 0.150000 0.225000
15 0.175000 0.806250 0.166667 0.237500
