15 0.833333 0.143750 0.133333 0.162500
15 0.679167 0.300000 0.141667 0.250000
15 0.537500 0.431250 0.108333 0.187500
15 0.412500 0.556250 0.141667 0.237500
15 0.308333 0.737500 0.100000 0.225000
15 0.166667 0.793750 0.183333 0.237500
